tb/rv32i_full.vcd
$date
	Thu Mar  5 18:31:56 2026
$end
$version
	Icarus Verilog
$end
$timescale
	1ps
$end
$scope module tb_top $end
$var wire 32 ! instr_obs [31:0] $end
$var wire 32 " pc_obs [31:0] $end
$var wire 32 # reg_wdata_obs [31:0] $end
$var wire 1 $ reg_we_obs $end
$var wire 1 % write_enable_obs $end
$var wire 32 & write_data_obs [31:0] $end
$var wire 5 ' rd_addr_obs [4:0] $end
$var wire 32 ( data_address_obs [31:0] $end
$var reg 1 ) clk $end
$var reg 1 * reset $end
$scope module u_top $end
$var wire 1 ) clk $end
$var wire 1 * reset $end
$var wire 1 % write_enable $end
$var wire 4 + write_data_strobe [3:0] $end
$var wire 32 , write_data [31:0] $end
$var wire 32 - read_data [31:0] $end
$var wire 32 . instruction_data [31:0] $end
$var wire 32 / instruction_address [31:0] $end
$var wire 32 0 data_address [31:0] $end
$scope module PrCore $end
$var wire 32 1 address_o [31:0] $end
$var wire 1 ) clk_i $end
$var wire 32 2 comp_port_a [31:0] $end
$var wire 32 3 dmem_data [31:0] $end
$var wire 32 4 instruction [31:0] $end
$var wire 32 5 instruction_address_o [31:0] $end
$var wire 1 * reset_i $end
$var wire 32 6 write_data_unaligned [31:0] $end
$var wire 1 % write_enable_o $end
$var wire 4 7 write_data_strobe_o [3:0] $end
$var wire 32 8 write_data_o [31:0] $end
$var wire 1 9 reg_write_enable $end
$var wire 3 : reg_write_data_sel [2:0] $end
$var wire 32 ; reg_source_2 [31:0] $end
$var wire 32 < reg_source_1 [31:0] $end
$var wire 32 = read_data_i [31:0] $end
$var wire 32 > read_data_aligned [31:0] $end
$var wire 32 ? pc_update [31:0] $end
$var wire 32 @ pc_next [31:0] $end
$var wire 1 A pc_mux_sel $end
$var wire 4 B load_store_type [3:0] $end
$var wire 32 C instruction_data_i [31:0] $end
$var wire 32 D immediate [31:0] $end
$var wire 3 E imm_select [2:0] $end
$var wire 1 F execute_port_b_sel $end
$var wire 1 G execute_port_a_sel $end
$var wire 1 H data_memory_write_enable $end
$var wire 32 I comp_port_b [31:0] $end
$var wire 3 J comp_op_sel [2:0] $end
$var wire 1 K branch_enable $end
$var wire 32 L alu_port_b [31:0] $end
$var wire 32 M alu_port_a [31:0] $end
$var wire 32 N alu_output [31:0] $end
$var wire 4 O alu_op_sel [3:0] $end
$var reg 32 P PC [31:0] $end
$var reg 32 Q reg_data [31:0] $end
$scope module alu $end
$var wire 32 R alu_port_a_i [31:0] $end
$var wire 32 S alu_port_b_i [31:0] $end
$var wire 4 T alu_op_sel_i [3:0] $end
$var parameter 32 U REG_ADDR_WIDTH $end
$var parameter 32 V XLEN $end
$var reg 32 W alu_o [31:0] $end
$upscope $end
$scope module bcu $end
$var wire 32 X comp_port_a_i [31:0] $end
$var wire 32 Y comp_port_b_i [31:0] $end
$var wire 3 Z comp_op_sel_i [2:0] $end
$var parameter 32 [ XLEN $end
$var reg 1 K comp_o $end
$upscope $end
$scope module ccu $end
$var wire 1 K branch_enable_i $end
$var wire 3 \ funct3_i [2:0] $end
$var wire 1 ] funct7_bit5_i $end
$var wire 7 ^ op_code_i [6:0] $end
$var parameter 7 _ OP_B_TYPE $end
$var parameter 7 ` OP_I_ALU_TYPE $end
$var parameter 7 a OP_I_ECALL_TYPE $end
$var parameter 7 b OP_I_FENCE_TYPE $end
$var parameter 7 c OP_I_JALR_TYPE $end
$var parameter 7 d OP_I_LOAD_TYPE $end
$var parameter 7 e OP_J_TYPE $end
$var parameter 7 f OP_R_TYPE $end
$var parameter 7 g OP_S_TYPE $end
$var parameter 7 h OP_U_AUIPC_TYPE $end
$var parameter 7 i OP_U_LUI_TYPE $end
$var parameter 32 j XLEN $end
$var reg 4 k alu_op_sel_o [3:0] $end
$var reg 3 l comp_op_sel_o [2:0] $end
$var reg 1 H data_memory_write_enable_o $end
$var reg 1 G execute_port_a_sel_o $end
$var reg 1 F execute_port_b_sel_o $end
$var reg 3 m imm_select_o [2:0] $end
$var reg 4 n load_store_type_o [3:0] $end
$var reg 1 A pc_mux_sel_o $end
$var reg 3 o reg_write_data_sel_o [2:0] $end
$var reg 1 9 reg_write_enable_o $end
$upscope $end
$scope module ise $end
$var wire 25 p imm_i [31:7] $end
$var wire 3 q imm_sel_i [2:0] $end
$var parameter 32 r XLEN $end
$var reg 32 s imm_o [31:0] $end
$upscope $end
$scope module lsu $end
$var wire 4 t load_store_type_i [3:0] $end
$var wire 32 u write_data_i [31:0] $end
$var wire 32 v read_data_i [31:0] $end
$var parameter 32 w XLEN $end
$var reg 32 x read_data_o [31:0] $end
$var reg 32 y write_data_o [31:0] $end
$var reg 4 z write_data_strobe_o [3:0] $end
$upscope $end
$scope module regfile $end
$var wire 1 ) clk_i $end
$var wire 5 { read_address_1_i [4:0] $end
$var wire 5 | read_address_2_i [4:0] $end
$var wire 5 } write_address_i [4:0] $end
$var wire 32 ~ write_data_i [31:0] $end
$var wire 1 9 write_enable_i $end
$var parameter 32 !" REG_ADDR_WIDTH $end
$var parameter 32 "" XLEN $end
$var reg 32 #" read_data_1_o [31:0] $end
$var reg 32 $" read_data_2_o [31:0] $end
$upscope $end
$upscope $end
$scope module dmem $end
$var wire 32 %" address_i [31:0] $end
$var wire 1 ) clk_i $end
$var wire 32 &" write_data_i [31:0] $end
$var wire 1 % write_enable_i $end
$var reg 32 '" read_data_o [31:0] $end
$upscope $end
$scope module imem $end
$var wire 32 (" instruction_address_i [31:0] $end
$var reg 32 )" instruction_data_o [31:0] $end
$upscope $end
$upscope $end
$scope begin $ivl_for_loop0 $end
$var integer 32 *" i [31:0] $end
$upscope $end
$scope begin check_loop $end
$upscope $end
$upscope $end
$enddefinitions $end
$comment Show the parameter values. $end
$dumpall
b100000 ""
b101 !"
b100000 w
b100000 r
b100000 j
b110111 i
b10111 h
b100011 g
b110011 f
b1101111 e
b11 d
b1100111 c
b1111 b
b1110011 a
b10011 `
b1100011 _
b100000 [
b100000 V
b101 U
$end
#0
$dumpvars
b0 *"
b10010001101000101000010110111 )"
b0 ("
bx '"
bx &"
b0 %"
bx $"
bx #"
b10010001101000101000000000000 ~
b1 }
b11 |
b1000 {
b0 z
bx y
bx x
bx v
bx u
b1000 t
b10010001101000101000000000000 s
b10 q
b1001000110100010100001 p
b11 o
b1000 n
b10 m
b110 l
b1000 k
b110111 ^
0]
b101 \
b110 Z
bx Y
bx X
b0 W
b1000 T
b10010001101000101000000000000 S
b0 R
b10010001101000101000000000000 Q
b0 P
b1000 O
b0 N
b0 M
b10010001101000101000000000000 L
0K
b110 J
bx I
0H
0G
0F
b10 E
b10010001101000101000000000000 D
b10010001101000101000010110111 C
b1000 B
0A
b100 @
b100 ?
bx >
bx =
bx <
bx ;
b11 :
19
bx 8
b0 7
bx 6
b0 5
b10010001101000101000010110111 4
bx 3
bx 2
b0 1
b0 0
b0 /
b10010001101000101000010110111 .
bx -
bx ,
b0 +
1*
0)
b0 (
b1 '
bx &
0%
1$
b10010001101000101000000000000 #
b0 "
b10010001101000101000010110111 !
$end
#5000
1)
#10000
0)
#15000
1)
#20000
0)
0*
#25000
b11001111000 L
b11001111000 S
b10010001101000101011001111000 #
b10010001101000101011001111000 Q
b10010001101000101011001111000 ~
b10010001101000101011001111000 (
b10010001101000101011001111000 0
b10010001101000101011001111000 1
b10010001101000101011001111000 %"
b10010001101000101011001111000 N
b10010001101000101011001111000 W
b10010001101000101000000000000 2
b10010001101000101000000000000 X
b10010001101000101000000000000 <
b10010001101000101000000000000 #"
b11001111000 D
b11001111000 s
b1 :
b1 o
b0 O
b0 T
b0 k
1G
b11 E
b11 m
b11 q
b1 {
b11000 |
b110011110000000100000001 p
b10011 ^
b0 \
1]
b1000 ?
b10010001101000101000000000000 M
b10010001101000101000000000000 R
b1100111100000001000000010010011 !
b1100111100000001000000010010011 4
b1100111100000001000000010010011 .
b1100111100000001000000010010011 C
b1100111100000001000000010010011 )"
b1000 @
b100 /
b100 5
b100 ("
b100 "
b100 P
1)
#30000
b10010001101000101110011110000 #
b10010001101000101110011110000 Q
b10010001101000101110011110000 ~
b10010001101000101110011110000 (
b10010001101000101110011110000 0
b10010001101000101110011110000 1
b10010001101000101110011110000 %"
b10010001101000101110011110000 N
b10010001101000101110011110000 W
b10010001101000101011001111000 M
b10010001101000101011001111000 R
b10010001101000101011001111000 2
b10010001101000101011001111000 X
b10010001101000101011001111000 <
b10010001101000101011001111000 #"
0)
#35000
b1000 #
b1000 Q
b1000 ~
b1000 (
b1000 0
b1000 1
b1000 %"
b1000 N
b1000 W
b0 I
b0 Y
b0 &
b0 ,
b0 8
b0 y
b0 &"
b0 L
b0 S
b1000 M
b1000 R
b0 6
b0 u
b0 ;
b0 $"
b0 2
b0 X
b0 <
b0 #"
b0 D
b0 s
0G
b10 E
b10 m
b10 q
b10 }
b0 {
b0 |
b10 p
b10111 ^
0]
b10 '
b1100 ?
b100010111 !
b100010111 4
b100010111 .
b100010111 C
b100010111 )"
b1100 @
b1000 /
b1000 5
b1000 ("
b1000 "
b1000 P
1)
#40000
0)
#45000
bx I
bx Y
bx &
bx ,
bx 8
bx y
bx &"
b11111111111111111111111111110110 L
b11111111111111111111111111110110 S
b11111111111111111111111111110110 #
b11111111111111111111111111110110 Q
b11111111111111111111111111110110 ~
bx 6
bx u
bx ;
bx $"
b11111111111111111111111111110110 D
b11111111111111111111111111110110 s
1G
b11 E
b11 m
b11 q
b11111111111111111111111111110110 (
b11111111111111111111111111110110 0
b11111111111111111111111111110110 1
b11111111111111111111111111110110 %"
b11111111111111111111111111110110 N
b11111111111111111111111111110110 W
b11 }
b10110 |
b1111111101100000000000011 p
b10011 ^
1]
b11 '
b10000 ?
b0 M
b0 R
b11111111011000000000000110010011 !
b11111111011000000000000110010011 4
b11111111011000000000000110010011 .
b11111111011000000000000110010011 C
b11111111011000000000000110010011 )"
b10000 @
b1100 /
b1100 5
b1100 ("
b1100 "
b1100 P
1)
#50000
0)
#55000
b11111111111111111111111111110110 M
b11111111111111111111111111110110 R
b11111111111111111111111111111111 L
b11111111111111111111111111111111 S
b0x #
b0x Q
b0x ~
xK
b0 (
b0 0
b0 1
b0 %"
b0 N
b0 W
b11111111111111111111111111110110 2
b11111111111111111111111111110110 X
b11111111111111111111111111110110 <
b11111111111111111111111111110110 #"
b11111111111111111111111111111111 D
b11111111111111111111111111111111 s
b10 :
b10 o
b10 J
b10 Z
b10 l
b1000 O
b1000 T
b1000 k
b100 }
b11 {
b11111 |
b1111111111110001101000100 p
b10 \
b100 '
b10100 ?
b11111111111100011010001000010011 !
b11111111111100011010001000010011 4
b11111111111100011010001000010011 .
b11111111111100011010001000010011 C
b11111111111100011010001000010011 )"
b10100 @
b10000 /
b10000 5
b10000 ("
b10000 "
b10000 P
1)
#60000
0)
#65000
b0 #
b0 Q
b0 ~
0K
b10010001101000101011001111000 I
b10010001101000101011001111000 Y
b10010001101000101011001111000 &
b10010001101000101011001111000 ,
b10010001101000101011001111000 8
b10010001101000101011001111000 y
b10010001101000101011001111000 &"
b1 L
b1 S
b10010001101000101011001111000 6
b10010001101000101011001111000 u
b10010001101000101011001111000 ;
b10010001101000101011001111000 $"
b1 D
b1 s
b100 J
b100 Z
b100 l
b101 }
b1 |
b10001101100101 p
b11 \
0]
b101 '
b11000 ?
b100011011001010010011 !
b100011011001010010011 4
b100011011001010010011 .
b100011011001010010011 C
b100011011001010010011 )"
b11000 @
b10100 /
b10100 5
b10100 ("
b10100 "
b10100 P
1)
#70000
0)
#75000
b0x M
b0x R
b0x #
b0x Q
b0x ~
b0x (
b0x 0
b0x 1
b0x %"
b0x N
b0x W
b0x 2
b0x X
b0x <
b0x #"
b1 :
b1 o
b110 J
b110 Z
b110 l
b100 O
b100 T
b100 k
b110 }
b100 {
b10010010000110 p
b100 \
b110 '
b11100 ?
b100100100001100010011 !
b100100100001100010011 4
b100100100001100010011 .
b100100100001100010011 C
b100100100001100010011 )"
b11100 @
b11000 /
b11000 5
b11000 ("
b11000 "
b11000 P
1)
#80000
0)
#85000
bx I
bx Y
bx &
bx ,
bx 8
bx y
bx &"
b1111 L
b1111 S
b1111 #
b1111 Q
b1111 ~
b1111 (
b1111 0
b1111 1
b1111 %"
b1111 N
b1111 W
bx 6
bx u
bx ;
bx $"
b1111 D
b1111 s
b11 O
b11 T
b11 k
b111 }
b110 {
b1111 |
b11110011011000111 p
b110 \
b111 '
b100000 ?
b111100110110001110010011 !
b111100110110001110010011 4
b111100110110001110010011 .
b111100110110001110010011 C
b111100110110001110010011 )"
b100000 @
b11100 /
b11100 5
b11100 ("
b11100 "
b11100 P
1)
#90000
0)
#95000
b0 I
b0 Y
b0 &
b0 ,
b0 8
b0 y
b0 &"
b1111 M
b1111 R
b101 L
b101 S
b101 #
b101 Q
b101 ~
b101 (
b101 0
b101 1
b101 %"
b101 N
b101 W
b0 6
b0 u
b0 ;
b0 $"
b1111 2
b1111 X
b1111 <
b1111 #"
b101 D
b101 s
b10 O
b10 T
b10 k
b1000 }
b111 {
b101 |
b1010011111101000 p
b111 \
b1000 '
b100100 ?
b10100111111010000010011 !
b10100111111010000010011 4
b10100111111010000010011 .
b10100111111010000010011 C
b10100111111010000010011 )"
b100100 @
b100000 /
b100000 5
b100000 ("
b100000 "
b100000 P
1)
#100000
0)
#105000
b0x I
b0x Y
b0x &
b0x ,
b0x 8
b0x y
b0x &"
b101 M
b101 R
b100 L
b100 S
b1010000 #
b1010000 Q
b1010000 ~
b1010000 (
b1010000 0
b1010000 1
b1010000 %"
b1010000 N
b1010000 W
b0x 6
b0x u
b0x ;
b0x $"
b101 2
b101 X
b101 <
b101 #"
b100 D
b100 s
b101 O
b101 T
b101 k
b1001 }
b1000 {
b100 |
b1000100000101001 p
b1 \
b1001 '
b101000 ?
b10001000001010010010011 !
b10001000001010010010011 4
b10001000001010010010011 .
b10001000001010010010011 C
b10001000001010010010011 )"
b101000 @
b100100 /
b100100 5
b100100 ("
b100100 "
b100100 P
1)
#110000
0)
#115000
b1000 I
b1000 Y
b1000 &
b1000 ,
b1000 8
b1000 y
b1000 &"
b1010000 M
b1010000 R
b10 L
b10 S
b10100 #
b10100 Q
b10100 ~
b10100 (
b10100 0
b10100 1
b10100 %"
b10100 N
b10100 W
b1000 6
b1000 u
b1000 ;
b1000 $"
b1010000 2
b1010000 X
b1010000 <
b1010000 #"
b10 D
b10 s
b110 O
b110 T
b110 k
b1010 }
b1001 {
b10 |
b100100110101010 p
b101 \
b1010 '
b101100 ?
b1001001101010100010011 !
b1001001101010100010011 4
b1001001101010100010011 .
b1001001101010100010011 C
b1001001101010100010011 )"
b101100 @
b101000 /
b101000 5
b101000 ("
b101000 "
b101000 P
1)
#120000
0)
#125000
b11111111111111111111111111111011 #
b11111111111111111111111111111011 Q
b11111111111111111111111111111011 ~
b11111111111111111111111111111011 (
b11111111111111111111111111111011 0
b11111111111111111111111111111011 1
b11111111111111111111111111111011 %"
b11111111111111111111111111111011 N
b11111111111111111111111111111011 W
b10010001101000101011001111000 I
b10010001101000101011001111000 Y
b10010001101000101011001111000 &
b10010001101000101011001111000 ,
b10010001101000101011001111000 8
b10010001101000101011001111000 y
b10010001101000101011001111000 &"
b11111111111111111111111111110110 M
b11111111111111111111111111110110 R
b10000000001 L
b10000000001 S
b10010001101000101011001111000 6
b10010001101000101011001111000 u
b10010001101000101011001111000 ;
b10010001101000101011001111000 $"
b11111111111111111111111111110110 2
b11111111111111111111111111110110 X
b11111111111111111111111111110110 <
b11111111111111111111111111110110 #"
b10000000001 D
b10000000001 s
b111 O
b111 T
b111 k
b1011 }
b11 {
b1 |
b100000000010001110101011 p
1]
b1011 '
b110000 ?
b1000000000100011101010110010011 !
b1000000000100011101010110010011 4
b1000000000100011101010110010011 .
b1000000000100011101010110010011 C
b1000000000100011101010110010011 )"
b110000 @
b101100 /
b101100 5
b101100 ("
b101100 "
b101100 P
1)
#130000
0)
#135000
b10100 &
b10100 ,
b10100 8
b10100 y
b10100 &"
b1010000 M
b1010000 R
b1100100 #
b1100100 Q
b1100100 ~
b0 I
b0 Y
b10100 L
b10100 S
b1100100 (
b1100100 0
b1100100 1
b1100100 %"
b1100100 N
b1100100 W
b10100 6
b10100 u
b10100 ;
b10100 $"
b1010000 2
b1010000 X
b1010000 <
b1010000 #"
b0 D
b0 s
1F
b0 O
b0 T
b0 k
b101 E
b101 m
b101 q
b1100 }
b1001 {
b1010 |
b10100100100001100 p
b110011 ^
b0 \
0]
b1100 '
b110100 ?
b101001001000011000110011 !
b101001001000011000110011 4
b101001001000011000110011 .
b101001001000011000110011 C
b101001001000011000110011 )"
b110100 @
b110000 /
b110000 5
b110000 ("
b110000 "
b110000 P
1)
#140000
0)
#145000
b111100 #
b111100 Q
b111100 ~
b111100 (
b111100 0
b111100 1
b111100 %"
b111100 N
b111100 W
b1 O
b1 T
b1 k
b1101 }
b100000010100100100001101 p
1]
b1101 '
b111000 ?
b1000000101001001000011010110011 !
b1000000101001001000011010110011 4
b1000000101001001000011010110011 .
b1000000101001001000011010110011 C
b1000000101001001000011010110011 )"
b111000 @
b110100 /
b110100 5
b110100 ("
b110100 "
b110100 P
1)
#150000
0)
#155000
bx #
bx Q
bx ~
b0x L
b0x S
b0x &
b0x ,
b0x 8
b0x y
b0x &"
b10100 M
b10100 R
bx (
bx 0
bx 1
bx %"
bx N
bx W
b0x 6
b0x u
b0x ;
b0x $"
b10100 2
b10100 X
b10100 <
b10100 #"
b101 O
b101 T
b101 k
b1110 }
b1010 {
b100 |
b1000101000101110 p
b1 \
0]
b1110 '
b111100 ?
b10001010001011100110011 !
b10001010001011100110011 4
b10001010001011100110011 .
b10001010001011100110011 C
b10001010001011100110011 )"
b111100 @
b111000 /
b111000 5
b111000 ("
b111000 "
b111000 P
1)
#160000
0)
#165000
b1100100 L
b1100100 S
b1100100 &
b1100100 ,
b1100100 8
b1100100 y
b1100100 &"
b11111111111111111111111111110110 M
b11111111111111111111111111110110 R
b1 #
b1 Q
b1 ~
1K
b0 (
b0 0
b0 1
b0 %"
b0 N
b0 W
b1100100 6
b1100100 u
b1100100 ;
b1100100 $"
b11111111111111111111111111110110 2
b11111111111111111111111111110110 X
b11111111111111111111111111110110 <
b11111111111111111111111111110110 #"
b10 :
b10 o
b10 J
b10 Z
b10 l
b1000 O
b1000 T
b1000 k
b1111 }
b11 {
b1100 |
b11000001101001111 p
b10 \
b1111 '
b1000000 ?
b110000011010011110110011 !
b110000011010011110110011 4
b110000011010011110110011 .
b110000011010011110110011 C
b110000011010011110110011 )"
b1000000 @
b111100 /
b111100 5
b111100 ("
b111100 "
b111100 P
1)
#170000
0)
#175000
b0 #
b0 Q
b0 ~
0K
b100 J
b100 Z
b100 l
b10000 }
b11000001101110000 p
b11 \
b10000 '
b1000100 ?
b110000011011100000110011 !
b110000011011100000110011 4
b110000011011100000110011 .
b110000011011100000110011 C
b110000011011100000110011 )"
b1000100 @
b1000000 /
b1000000 5
b1000000 ("
b1000000 "
b1000000 P
1)
#180000
0)
#185000
b111100 L
b111100 S
b111100 &
b111100 ,
b111100 8
b111100 y
b111100 &"
b1100100 M
b1100100 R
b1011000 #
b1011000 Q
b1011000 ~
b1011000 (
b1011000 0
b1011000 1
b1011000 %"
b1011000 N
b1011000 W
b111100 6
b111100 u
b111100 ;
b111100 $"
b1100100 2
b1100100 X
b1100100 <
b1100100 #"
b1 :
b1 o
b110 J
b110 Z
b110 l
b100 O
b100 T
b100 k
b10001 }
b1100 {
b1101 |
b11010110010010001 p
b100 \
b10001 '
b1001000 ?
b110101100100100010110011 !
b110101100100100010110011 4
b110101100100100010110011 .
b110101100100100010110011 C
b110101100100100010110011 )"
b1001000 @
b1000100 /
b1000100 5
b1000100 ("
b1000100 "
b1000100 P
1)
#190000
0)
#195000
bx #
bx Q
bx ~
b0x L
b0x S
b0x &
b0x ,
b0x 8
b0x y
b0x &"
bx M
bx R
bx (
bx 0
bx 1
bx %"
bx N
bx W
b0x 6
b0x u
b0x ;
b0x $"
bx 2
bx X
bx <
bx #"
b110 O
b110 T
b110 k
b10010 }
b1110 {
b100 |
b1000111010110010 p
b101 \
b10010 '
b1001100 ?
b10001110101100100110011 !
b10001110101100100110011 4
b10001110101100100110011 .
b10001110101100100110011 C
b10001110101100100110011 )"
b1001100 @
b1001000 /
b1001000 5
b1001000 ("
b1001000 "
b1001000 P
1)
#200000
0)
#205000
b11111111111111111111111111110110 M
b11111111111111111111111111110110 R
b11111111111111111111111111110110 2
b11111111111111111111111111110110 X
b11111111111111111111111111110110 <
b11111111111111111111111111110110 #"
b111 O
b111 T
b111 k
b10011 }
b11 {
b100000001000001110110011 p
1]
b10011 '
b1010000 ?
b1000000010000011101100110110011 !
b1000000010000011101100110110011 4
b1000000010000011101100110110011 .
b1000000010000011101100110110011 C
b1000000010000011101100110110011 )"
b1010000 @
b1001100 /
b1001100 5
b1001100 ("
b1001100 "
b1001100 P
1)
#210000
0)
#215000
b1111100 #
b1111100 Q
b1111100 ~
b111100 L
b111100 S
b111100 &
b111100 ,
b111100 8
b111100 y
b111100 &"
b1100100 M
b1100100 R
b1111100 (
b1111100 0
b1111100 1
b1111100 %"
b1111100 N
b1111100 W
b111100 6
b111100 u
b111100 ;
b111100 $"
b1100100 2
b1100100 X
b1100100 <
b1100100 #"
b11 O
b11 T
b11 k
b10100 }
b1100 {
b1101 |
b11010110011010100 p
b110 \
0]
b10100 '
b1010100 ?
b110101100110101000110011 !
b110101100110101000110011 4
b110101100110101000110011 .
b110101100110101000110011 C
b110101100110101000110011 )"
b1010100 @
b1010000 /
b1010000 5
b1010000 ("
b1010000 "
b1010000 P
1)
#220000
0)
#225000
b100100 #
b100100 Q
b100100 ~
b100100 (
b100100 0
b100100 1
b100100 %"
b100100 N
b100100 W
b10 O
b10 T
b10 k
b10101 }
b11010110011110101 p
b111 \
b10101 '
b1011000 ?
b110101100111101010110011 !
b110101100111101010110011 4
b110101100111101010110011 .
b110101100111101010110011 C
b110101100111101010110011 )"
b1011000 @
b1010100 /
b1010100 5
b1010100 ("
b1010100 "
b1010100 P
1)
#230000
0)
#235000
b0 &
b0 ,
b0 8
b0 y
b0 &"
b0 M
b0 R
b1000000 #
b1000000 Q
b1000000 ~
b1000000 L
b1000000 S
b1000000 (
b1000000 0
b1000000 1
b1000000 %"
b1000000 N
b1000000 W
b0 6
b0 u
b0 ;
b0 $"
b0 2
b0 X
b0 <
b0 #"
b1000000 D
b1000000 s
0F
b0 O
b0 T
b0 k
b11 E
b11 m
b11 q
b10110 }
b0 {
b0 |
b10000000000000010110 p
b10011 ^
b0 \
b10110 '
b1011100 ?
b100000000000000101100010011 !
b100000000000000101100010011 4
b100000000000000101100010011 .
b100000000000000101100010011 C
b100000000000000101100010011 )"
b1011100 @
b1011000 /
b1011000 5
b1011000 ("
b1011000 "
b1011000 P
1)
#240000
0)
#245000
b10010001101000101011001111000 I
b10010001101000101011001111000 Y
b1000000 M
b1000000 R
b0 L
b0 S
bz #
bz Q
bz ~
b1111 +
b1111 7
b1111 z
b10010001101000101011001111000 &
b10010001101000101011001111000 ,
b10010001101000101011001111000 8
b10010001101000101011001111000 y
b10010001101000101011001111000 &"
b10010001101000101011001111000 6
b10010001101000101011001111000 u
b10010001101000101011001111000 ;
b10010001101000101011001111000 $"
b1000000 2
b1000000 X
b1000000 <
b1000000 #"
b0 D
b0 s
b101 :
b101 o
1%
1H
b101 B
b101 n
b101 t
b1 E
b1 m
b1 q
0$
09
b0 }
b10110 {
b1 |
b11011001000000 p
b100011 ^
b10 \
b0 '
b1100000 ?
b110110010000000100011 !
b110110010000000100011 4
b110110010000000100011 .
b110110010000000100011 C
b110110010000000100011 )"
b1100000 @
b1011100 /
b1011100 5
b1011100 ("
b1011100 "
b1011100 P
1)
#250000
0)
#255000
b0 I
b0 Y
bx #
bx Q
bx ~
b0 +
b0 7
b0 z
b0 &
b0 ,
b0 8
b0 y
b0 &"
b0 6
b0 u
b0 ;
b0 $"
b0 :
b0 o
0%
0H
b0 B
b0 n
b0 t
b11 E
b11 m
b11 q
1$
19
b10111 }
b0 |
b1011001010111 p
b11 ^
b10111 '
b1100100 ?
b10110010101110000011 !
b10110010101110000011 4
b10110010101110000011 .
b10110010101110000011 C
b10110010101110000011 )"
b1100100 @
b1100000 /
b1100000 5
b1100000 ("
b1100000 "
b1100000 P
1)
#260000
0)
#265000
b1 B
b1 n
b1 t
b11000 }
b1011000111000 p
b1 \
b11000 '
b1101000 ?
b10110001110000000011 !
b10110001110000000011 4
b10110001110000000011 .
b10110001110000000011 C
b10110001110000000011 )"
b1101000 @
b1100100 /
b1100100 5
b1100100 ("
b1100100 "
b1100100 P
1)
#270000
0)
#275000
b1000010 (
b1000010 0
b1000010 1
b1000010 %"
b1000010 N
b1000010 W
b1000 I
b1000 Y
b10 L
b10 S
b0xxxxxxxxxxxxxxxx #
b0xxxxxxxxxxxxxxxx Q
b0xxxxxxxxxxxxxxxx ~
b1000 &
b1000 ,
b1000 8
b1000 y
b1000 &"
b0xxxxxxxxxxxxxxxx 3
b0xxxxxxxxxxxxxxxx >
b0xxxxxxxxxxxxxxxx x
b1000 6
b1000 u
b1000 ;
b1000 $"
b10 D
b10 s
b10 B
b10 n
b10 t
b11001 }
b10 |
b101011010111001 p
b101 \
b11001 '
b1101100 ?
b1010110101110010000011 !
b1010110101110010000011 4
b1010110101110010000011 .
b1010110101110010000011 C
b1010110101110010000011 )"
b1101100 @
b1101000 /
b1101000 5
b1101000 ("
b1101000 "
b1101000 P
1)
#280000
0)
#285000
b1000000 (
b1000000 0
b1000000 1
b1000000 %"
b1000000 N
b1000000 W
b0 I
b0 Y
b0 L
b0 S
bx #
bx Q
bx ~
b0 &
b0 ,
b0 8
b0 y
b0 &"
bx 3
bx >
bx x
b0 6
b0 u
b0 ;
b0 $"
b0 D
b0 s
b11 B
b11 n
b11 t
b11010 }
b0 |
b1011000011010 p
b0 \
b11010 '
b1110000 ?
b10110000110100000011 !
b10110000110100000011 4
b10110000110100000011 .
b10110000110100000011 C
b10110000110100000011 )"
b1110000 @
b1101100 /
b1101100 5
b1101100 ("
b1101100 "
b1101100 P
1)
#290000
0)
#295000
b1000011 (
b1000011 0
b1000011 1
b1000011 %"
b1000011 N
b1000011 W
b11111111111111111111111111110110 I
b11111111111111111111111111110110 Y
b11 L
b11 S
b0xxxxxxxx #
b0xxxxxxxx Q
b0xxxxxxxx ~
b11111111111111111111111111110110 &
b11111111111111111111111111110110 ,
b11111111111111111111111111110110 8
b11111111111111111111111111110110 y
b11111111111111111111111111110110 &"
b0xxxxxxxx 3
b0xxxxxxxx >
b0xxxxxxxx x
b11111111111111111111111111110110 6
b11111111111111111111111111110110 u
b11111111111111111111111111110110 ;
b11111111111111111111111111110110 $"
b11 D
b11 s
b100 B
b100 n
b100 t
b11011 }
b11 |
b111011010011011 p
b100 \
b11011 '
b1110100 ?
b1110110100110110000011 !
b1110110100110110000011 4
b1110110100110110000011 .
b1110110100110110000011 C
b1110110100110110000011 )"
b1110100 @
b1110000 /
b1110000 5
b1110000 ("
b1110000 "
b1110000 P
1)
#300000
0)
#305000
b0 (
b0 0
b0 1
b0 %"
b0 N
b0 W
b0 I
b0 Y
b0 M
b0 R
b0 L
b0 S
b0 &
b0 ,
b0 8
b0 y
b0 &"
bx 3
bx >
bx x
b0 #
b0 Q
b0 ~
b0 6
b0 u
b0 ;
b0 $"
b0 2
b0 X
b0 <
b0 #"
b0 D
b0 s
b1000 B
b1000 n
b1000 t
b1 :
b1 o
b11100 }
b0 {
b0 |
b11100 p
b10011 ^
b0 \
b11100 '
b1111000 ?
b111000010011 !
b111000010011 4
b111000010011 .
b111000010011 C
b111000010011 )"
b1111000 @
b1110100 /
b1110100 5
b1110100 ("
b1110100 "
b1110100 P
1)
#310000
0)
#315000
xA
b10000000 (
b10000000 0
b10000000 1
b10000000 %"
b10000000 N
b10000000 W
b10010001101000101011001111000 I
b10010001101000101011001111000 Y
b10010001101000101011001111000 &
b10010001101000101011001111000 ,
b10010001101000101011001111000 8
b10010001101000101011001111000 y
b10010001101000101011001111000 &"
b1000 L
b1000 S
bz #
bz Q
bz ~
xK
b1111000 M
b1111000 R
b10010001101000101011001111000 6
b10010001101000101011001111000 u
b10010001101000101011001111000 ;
b10010001101000101011001111000 $"
bx 2
bx X
bx <
bx #"
b1000 D
b1000 s
b101 :
b101 o
b0 J
b0 Z
b0 l
0G
b0 E
b0 m
b0 q
0$
09
b1000 }
b10111 {
b1 |
b11011100001000 p
b1100011 ^
b1000 '
b0xxxxxx00 ?
b110111000010001100011 !
b110111000010001100011 4
b110111000010001100011 .
b110111000010001100011 C
b110111000010001100011 )"
b1111100 @
b1111000 /
b1111000 5
b1111000 ("
b1111000 "
b1111000 P
1)
#320000
0)
#325000
bx I
bx Y
bx &
bx ,
bx 8
bx y
bx &"
b0 L
b0 S
0K
bx 6
bx u
bx ;
bx $"
b0 D
b0 s
b110 J
b110 Z
b110 l
b1000 O
b1000 T
b1000 k
b101 E
b101 m
b101 q
0A
b0 (
b0 0
b0 1
b0 %"
b0 N
b0 W
bx }
bx {
bx |
bx p
bx ^
bx \
x]
bx '
bx ?
b0xxxxxx00 M
b0xxxxxx00 R
bx !
bx 4
bx .
bx C
bx )"
bx @
b0xxxxxx00 /
b0xxxxxx00 5
b0xxxxxx00 ("
b0xxxxxx00 "
b0xxxxxx00 P
1)
#330000
0)
#335000
bx M
bx R
bx /
bx 5
bx ("
bx "
bx P
1)
#340000
0)
#345000
1)
#350000
0)
#355000
1)
b100000 *"
